{
	"info": {
		"_postman_id": "667953cd-b19d-4dd4-bdb8-a3e8f0a6c2b7",
		"name": "s34-Activity",
		"schema": "https://schema.getpostman.com/json/collection/v2.1.0/collection.json"
	},
	"item": [
		{
			"name": "homepage",
			"request": {
				"method": "GET",
				"header": []
			},
			"response": []
		},
		{
			"name": "get users",
			"request": {
				"method": "GET",
				"header": [],
				"url": {
					"raw": "localhost:3000/home",
					"host": [
						"localhost"
					],
					"port": "3000",
					"path": [
						"home"
					]
				}
			},
			"response": []
		},
		{
			"name": "delete-user",
			"request": {
				"method": "DELETE",
				"header": []
			},
			"response": []
		}
	]
}